"0","# A boxplot of Glycohemoglobin by diebetes group"
"0","library(ggplot2)"
"0","g <- ggplot(data = na.omit(mydata[,c('diq010','lbxgh')]), aes(x = diq010,y = lbxgh, fill = diq010)) + geom_boxplot() + theme(legend.position = ""none"", axis.text.x = element_text(angle = 30, vjust = 0.6)) + labs(x = "" Whether Doctor told you have diabetes"", y = ""Glycohemoglobin %"") + ggtitle(""A boxplot of Glycohemoglobin by diebetes group"") + scale_y_continuous(breaks = seq(3, 20, 1), limits = c(3, 20))"
"0","g"
