"0","# specify ridreth3 (Race) as factor and label it"
"0","mydata13 %>% mutate(ridreth3 = factor(ridreth3)) -> mydata14"
"0","levels(mydata14$ridreth3) <- c(""Mexican American"",""Other Hispanic"",""Non-Hispanic White"",""Non-Hispanic Black"",""Non-Hispanic Asian"",""Other Race - Including Multi-Racial"")"
"0","label(mydata14$ridreth3) <- ""Race"""
