"0","# specify indhhin2 (Annual household income) as factor and label it"
"0","mydata8 %>% mutate(indhhin2 = ifelse(indhhin2 == 77 | indhhin2 == 99, NA, indhhin2)) %>% mutate(indhhin2 = factor(indhhin2)) -> mydata9"
"0","levels(mydata9$indhhin2) <- c(paste(rep(""$"",5),seq(0,20000,5000),rep(""to"",5),rep(""$"",5),seq(4999,24999,5000)),paste(rep(""$"",5),seq(25000,65000,10000),rep(""to"",5),rep(""$"",5),seq(34999,74999,10000)),c(""$20000 and Over"",""Under $20000"",""$75000 to $99999"",""$100000 and Over""))"
"0","label(mydata9$indhhin2) <- ""Annual household income"""
